<?xml version="1.0" encoding="UTF-8"?>
<svg width="165px" height="132px" viewBox="0 0 165 132" version="1.1" xmlns="http://www.w3.org/2000/svg" xmlns:xlink="http://www.w3.org/1999/xlink">
    <!-- Generator: Sketch 51.2 (57519) - http://www.bohemiancoding.com/sketch -->
    <title>ic/email</title>
    <desc>Created with Sketch.</desc>
    <defs>
        <path d="M164.363294,32.8726588 L32.8726588,32.8726588 C23.8326776,32.8726588 16.5185111,40.2690071 16.5185111,49.3089882 L16.4363294,147.926965 C16.4363294,156.966946 23.8326776,164.363294 32.8726588,164.363294 L164.363294,164.363294 C173.403275,164.363294 180.799624,156.966946 180.799624,147.926965 L180.799624,49.3089882 C180.799624,40.2690071 173.403275,32.8726588 164.363294,32.8726588 Z M164.363294,65.7453176 L98.6179765,106.836141 L32.8726588,65.7453176 L32.8726588,49.3089882 L98.6179765,90.3998118 L164.363294,49.3089882 L164.363294,65.7453176 Z" id="path-1"></path>
    </defs>
    <g id="-" stroke="none" stroke-width="1" fill="none" fill-rule="evenodd">
        <g id="ic/email" transform="translate(-16.000000, -32.416667)">
            <g id="ic_email_24px">
                <mask id="mask-2" fill="white">
                    <use xlink:href="#path-1"></use>
                </mask>
                <g id="Shape" fill-rule="nonzero"></g>
                <g id="c/#000000/0.54" mask="url(#mask-2)" fill="#FFFFFF">
                    <rect id="Rectangle" x="0" y="0" width="198.576" height="198.576"></rect>
                </g>
            </g>
        </g>
    </g>
</svg>