<?xml version="1.0" encoding="UTF-8" standalone="no"?>
<svg:svg
  xmlns:svg="http://www.w3.org/2000/svg"
  version="1.1"
  width="100"
  height="100"
  viewBox="0 0 100 100"
  id="svg3"
  fill="white"
>
  <svg:g id="x" >
    <svg:polygon 
      points=
        "0,15 15,0 50,35 85,0 100,15 65,50 100,85 85,100 50,65 15,100 0,85 35,50"
      id="x2"/>
  </svg:g>
</svg:svg>
